…
``` r
#for fun


## Fit a glmnet with besttune from caret

ridge_glmnet <- glmnet(x, y, alpha = 0, lambda = best_lambda_ridge)

broom::tidy(ridge_glmnet) %>% 
  arrange(abs(estimate)) #see shrunk coefficients with lambda chosen by caret
```

    ## # A tibble: 47 x 5
    ##    term                                     step estimate lambda dev.ratio
    ##    <chr>                                   <dbl>    <dbl>  <dbl>     <dbl>
    ##  1 health__pop_per_primary_care_physician      1 -8.22e-4   4.13     0.715
    ##  2 health__pop_per_dentist                     1  1.03e-3   4.13     0.715
    ##  3 health__motor_vehicle_crash_deaths_per…     1  4.32e-1   4.13     0.715
    ##  4 population_ruccsUrban 2,500-19,999 met…     1 -5.61e-1   4.13     0.715
    ##  5 population_ruccsRural metro non-adjace…     1  9.87e-1   4.13     0.715
    ##  6 pure_population>20,000                      1  1.18e+0   4.13     0.715
    ##  7 demo__birth_rate_per_1k                     1  1.31e+0   4.13     0.715
    ##  8 economic_typologyManufacturing-depende…     1  1.47e+0   4.13     0.715
    ##  9 pure_population2,500 - <20,000              1  1.51e+0   4.13     0.715
    ## 10 pure_population> 1,000,000                  1  1.61e+0   4.13     0.715
    ## # ... with 37 more rows
…
